CURRENCY,CAD,,xxx-data-configuration/src/Data/Import1CSV
CURRENCY,CHF,GB0010001,xxx-data-configuration/src/Data/Import1CSV
CURRENCY,CNY,,xxx-data-configuration/src/Data/Import1CSV
ENQUIRY,%AA.PRODUCT.DESIGNER,,xxx-models/local/Import1CSV
VERSION,"COLLATERAL.TYPE,",,xxx-models/local/Import1CSV
